\relax 
\@writefile{toc}{\contentsline {section}{\numberline {1} Introduction }{1}}
\@writefile{toc}{\contentsline {section}{\numberline {2} Variables }{1}}
\@writefile{toc}{\contentsline {section}{\numberline {3} Modules }{1}}
\@writefile{toc}{\contentsline {subsection}{\numberline {3.1} conserved\_Quantity }{1}}
\@writefile{toc}{\contentsline {subsection}{\numberline {3.2} control\_Data }{1}}
\@writefile{toc}{\contentsline {subsection}{\numberline {3.3} flux\_Difference }{2}}
\@writefile{toc}{\contentsline {subsection}{\numberline {3.4} fundamental\_Constants }{2}}
\@writefile{toc}{\contentsline {subsection}{\numberline {3.5} grid\_Data }{2}}
\@writefile{toc}{\contentsline {subsection}{\numberline {3.6} reaction\_Data }{2}}
\@writefile{toc}{\contentsline {subsection}{\numberline {3.7} statusCheck }{2}}
\@writefile{toc}{\contentsline {subsection}{\numberline {3.8} thermal\_Property }{2}}
\@writefile{toc}{\contentsline {subsection}{\numberline {3.9} thermocoeff }{2}}
\@writefile{toc}{\contentsline {subsection}{\numberline {3.10} transport }{2}}
\@writefile{toc}{\contentsline {subsection}{\numberline {3.11} readCommentedFile }{2}}
\@writefile{toc}{\contentsline {subsection}{\numberline {3.12} AuxSubprogram }{2}}
